\begin{tabular}{lrrrrrrrrrrrrrrr}
\toprule
               & \multicolumn{1}{c}{0.01} & \multicolumn{1}{c}{0.05} & \multicolumn{1}{c}{0.10} & \multicolumn{1}{c}{0.50} & \multicolumn{1}{c}{1.00} & \multicolumn{1}{c}{0.01} & \multicolumn{1}{c}{0.05} & \multicolumn{1}{c}{0.10} & \multicolumn{1}{c}{0.50} & \multicolumn{1}{c}{1.00} & \multicolumn{1}{c}{0.01} & \multicolumn{1}{c}{0.05} & \multicolumn{1}{c}{0.10} & \multicolumn{1}{c}{0.50} & \multicolumn{1}{c}{1.00} \\ 
\cmidrule(lr){2-2} \cmidrule(lr){3-3} \cmidrule(lr){4-4} \cmidrule(lr){5-5} \cmidrule(lr){6-6} \cmidrule(lr){7-7} \cmidrule(lr){8-8} \cmidrule(lr){9-9} \cmidrule(lr){10-10} \cmidrule(lr){11-11} \cmidrule(lr){12-12} \cmidrule(lr){13-13} \cmidrule(lr){14-14} \cmidrule(lr){15-15} \cmidrule(lr){16-16} 
               &                                                                                                                       \multicolumn{10}{c}{$Q_{ST,u}$}                                                                                                                       &                                              \multicolumn{5}{c}{$Q_{ST,u} - b \bar{N}$}                                              \\ 
\cmidrule(lr){2-11} \cmidrule(lr){12-16} 
(Intercept)    &                    0.000 &                   -0.000 &                   -0.000 &                   -0.000 &                    0.000 &                   -0.000 &                   -0.000 &                   -0.000 &                   -0.000 &                   -0.000 &                   -0.000 &                   -0.000 &                   -0.000 &                   -0.000 &                   -0.000 \\ 
               &                  (0.023) &                  (0.022) &                  (0.021) &                  (0.017) &                  (0.014) &                  (0.023) &                  (0.022) &                  (0.022) &                  (0.025) &                  (0.029) &                  (0.023) &                  (0.022) &                  (0.026) &                  (0.028) &                  (0.030) \\ 
$cl$           &                 0.739*** &                 0.767*** &                 0.787*** &                 0.872*** &                 0.911*** &                          &                          &                          &                          &                          &                          &                          &                          &                          &                          \\ 
               &                  (0.023) &                  (0.022) &                  (0.021) &                  (0.017) &                  (0.014) &                          &                          &                          &                          &                          &                          &                          &                          &                          &                          \\ 
$h_d$          &                          &                          &                          &                          &                          &                -0.753*** &                -0.777*** &                -0.755*** &                -0.674*** &                -0.546*** &                -0.753*** &                -0.754*** &                -0.535*** &                -0.143*** &                -0.118*** \\ 
               &                          &                          &                          &                          &                          &                  (0.023) &                  (0.022) &                  (0.022) &                  (0.025) &                  (0.029) &                  (0.023) &                  (0.022) &                  (0.026) &                  (0.028) &                  (0.030) \\ 
\midrule
Number of sim. &                      853 &                      853 &                      853 &                      853 &                      853 &                      853 &                      853 &                      853 &                      853 &                      853 &                      853 &                      853 &                      853 &                      853 &                      853 \\ 
$R^2$          &                    0.546 &                    0.589 &                    0.620 &                    0.760 &                    0.831 &                    0.567 &                    0.604 &                    0.570 &                    0.454 &                    0.298 &                    0.567 &                    0.578 &                    0.335 &                    0.030 &                    0.017 \\ 
\bottomrule
\end{tabular}
